<?xml version="1.0" encoding="UTF-8" standalone="no"?>
<svg width="100px" height="93px" viewBox="0 0 100 93" version="1.1" xmlns="http://www.w3.org/2000/svg" xmlns:xlink="http://www.w3.org/1999/xlink">
    <!-- Generator: sketchtool 41.1 (35376) - http://www.bohemiancoding.com/sketch -->
    <title>6869FAF3-193B-46A2-9EB4-FD39A6D8912D</title>
    <desc>Created with sketchtool.</desc>
    <defs></defs>
    <g id="лендос" stroke="none" stroke-width="1" fill="none" fill-rule="evenodd">
        <g id="лендос-768-1920" transform="translate(-1141.000000, -3522.000000)" fill="#00BD13">
            <g id="слайд-4" transform="translate(0.000000, 3240.000000)">
                <g id="иконка-кафе" transform="translate(1141.000000, 282.000000)">
                    <path d="M97.7886243,92.9507937 L2.11640212,92.9507937 C0.947619048,92.9507937 0,92.0031746 0,90.8343915 C0,89.6656085 0.947619048,88.7179894 2.11640212,88.7179894 L97.7886243,88.7179894 C98.9574074,88.7179894 99.9050265,89.6656085 99.9050265,90.8343915 C99.9050265,92.0031746 98.9574074,92.9507937 97.7886243,92.9507937 Z M93.9071429,83.3047619 C92.7383598,83.3047619 91.7907407,82.3571429 91.7907407,81.1883598 L91.7907407,34.4195767 L74.7248677,34.4195767 C73.5560847,34.4195767 72.6084656,33.4719577 72.6084656,32.3031746 C72.6084656,31.1343915 73.5560847,30.1867725 74.7248677,30.1867725 L93.9074074,30.1867725 C95.0761905,30.1867725 96.0238095,31.1343915 96.0238095,32.3031746 C96.0238095,32.3142857 96.0238095,32.3256614 96.023545,32.3367725 L96.023545,81.1880952 C96.023545,82.3571429 95.0759259,83.3047619 93.9071429,83.3047619 Z M83.3579365,83.3047619 C82.1891534,83.3047619 81.2415344,82.3571429 81.2415344,81.1883598 L81.2415344,54.5084656 L69.544709,54.5084656 L69.544709,81.1883598 C69.544709,82.3571429 68.5970899,83.3047619 67.4283069,83.3047619 C66.2595238,83.3047619 65.3119048,82.3571429 65.3119048,81.1883598 L65.3119048,52.392328 C65.3119048,51.223545 66.2595238,50.2759259 67.4283069,50.2759259 C67.5148148,50.2759259 67.6,50.2812169 67.684127,50.2912698 C67.7687831,50.2809524 67.855291,50.2756614 67.9431217,50.2756614 L82.8431217,50.2756614 C82.9306878,50.2756614 83.0171958,50.2809524 83.1021164,50.2912698 C83.1857143,50.2812169 83.2714286,50.2759259 83.3579365,50.2759259 C84.5267196,50.2759259 85.4743386,51.223545 85.4743386,52.392328 L85.4743386,81.1883598 C85.4743386,82.3571429 84.5267196,83.3047619 83.3579365,83.3047619 Z M58.6896825,83.3047619 L16.5457672,83.3047619 C15.3769841,83.3047619 14.4293651,82.3571429 14.4293651,81.1883598 L14.4293651,51.0968254 C14.4293651,49.9280423 15.3769841,48.9804233 16.5457672,48.9804233 L58.6896825,48.9804233 C59.8584656,48.9804233 60.8060847,49.9280423 60.8060847,51.0968254 L60.8060847,81.1880952 C60.8060847,82.3571429 59.8584656,83.3047619 58.6896825,83.3047619 Z M18.6621693,79.0719577 L56.5732804,79.0719577 L56.5732804,53.2134921 L18.6621693,53.2134921 L18.6621693,79.0719577 Z M5.9978836,83.3047619 C4.82910053,83.3047619 3.88148148,82.3571429 3.88148148,81.1883598 L3.88148148,32.3497354 C3.88121693,32.334127 3.88095238,32.3185185 3.88095238,32.3031746 C3.88095238,31.1343915 4.82857143,30.1867725 5.9973545,30.1867725 L25.1801587,30.1867725 C26.3489418,30.1867725 27.2965608,31.1343915 27.2965608,32.3031746 C27.2965608,33.4719577 26.3489418,34.4195767 25.1801587,34.4195767 L8.11428571,34.4195767 L8.11428571,81.1883598 C8.11428571,82.3571429 7.16666667,83.3047619 5.9978836,83.3047619 Z M30.3648148,75.0346561 C29.8230159,75.0346561 29.2814815,74.8280423 28.868254,74.4148148 C28.0417989,73.5883598 28.0417989,72.2484127 28.868254,71.4219577 L42.4203704,57.8701058 C43.2473545,57.0433862 44.587037,57.0439153 45.4134921,57.8701058 C46.2399471,58.6965608 46.2399471,60.0365079 45.4134921,60.862963 L31.8613757,74.4148148 C31.4481481,74.8280423 30.9063492,75.0346561 30.3648148,75.0346561 Z M75.3928571,72.0920635 C74.2240741,72.0920635 73.276455,71.1444444 73.276455,69.9756614 L73.276455,65.8484127 C73.276455,64.6796296 74.2240741,63.7320106 75.3928571,63.7320106 C76.5616402,63.7320106 77.5092593,64.6796296 77.5092593,65.8484127 L77.5092593,69.9756614 C77.5092593,71.1444444 76.5616402,72.0920635 75.3928571,72.0920635 Z M25.3529101,66.7566138 C24.8111111,66.7566138 24.2695767,66.55 23.8563492,66.1367725 C23.0298942,65.3103175 23.0298942,63.9703704 23.8563492,63.1439153 L29.1301587,57.8701058 C29.9568783,57.0436508 31.2965608,57.0436508 32.1232804,57.8701058 C32.9497354,58.6965608 32.9497354,60.0365079 32.1232804,60.862963 L26.8494709,66.1367725 C26.4362434,66.55 25.894709,66.7566138 25.3529101,66.7566138 Z M49.952381,43.9592593 C38.7931217,43.9592593 29.7145503,34.8806878 29.7145503,23.7214286 C29.7145503,16.2108466 33.8637566,9.3505291 40.5431217,5.81798942 C41.5761905,5.27116402 42.8568783,5.66613757 43.4034392,6.6994709 C43.9497354,7.73280423 43.5550265,9.01322751 42.5219577,9.55978836 C37.2330688,12.3571429 33.9473545,17.7835979 33.9473545,23.7216931 C33.9473545,32.5468254 41.1272487,39.7267196 49.952381,39.7267196 C58.7775132,39.7267196 65.9574074,32.5468254 65.9574074,23.7216931 C65.9574074,17.784127 62.6719577,12.3574074 57.3830688,9.55978836 C56.3497354,9.01322751 55.955291,7.73253968 56.5018519,6.6994709 C57.0481481,5.66613757 58.3291005,5.27169312 59.3621693,5.81825397 C66.0412698,9.35132275 70.1904762,16.2116402 70.1904762,23.7216931 C70.1902116,34.8804233 61.1116402,43.9592593 49.952381,43.9592593 Z M49.952381,33.6584656 C45.0489418,33.6584656 41.0597884,29.6693122 41.0597884,24.7661376 L41.0597884,17.9896825 C41.0597884,16.8208995 42.0074074,15.8732804 43.1761905,15.8732804 L56.728836,15.8732804 C57.897619,15.8732804 58.8452381,16.8208995 58.8452381,17.9896825 L58.8452381,20.9259259 L60.8132275,20.9259259 C61.9820106,20.9259259 62.9296296,21.873545 62.9296296,23.042328 C62.9296296,24.2111111 61.9820106,25.1587302 60.8132275,25.1587302 L58.8365079,25.1587302 C58.6306878,29.8806878 54.7243386,33.6584656 49.952381,33.6584656 Z M45.2925926,20.1060847 L45.2925926,24.7661376 C45.2925926,27.3354497 47.3828042,29.4256614 49.9521164,29.4256614 C52.5216931,29.4256614 54.6121693,27.3354497 54.6121693,24.7661376 L54.6121693,20.1060847 L45.2925926,20.1060847 Z M49.952381,12.8190476 C48.7835979,12.8190476 47.8359788,11.8714286 47.8359788,10.7026455 L47.8359788,2.19232804 C47.8359788,1.02354497 48.7835979,0.0759259259 49.952381,0.0759259259 C51.121164,0.0759259259 52.0687831,1.02354497 52.0687831,2.19232804 L52.0687831,10.7026455 C52.0687831,11.8714286 51.121164,12.8190476 49.952381,12.8190476 Z" id="Shape"></path>
                </g>
            </g>
        </g>
    </g>
</svg>