<?xml version="1.0" encoding="UTF-8" standalone="no"?>
<svg width="77px" height="100px" viewBox="0 0 77 100" version="1.1" xmlns="http://www.w3.org/2000/svg" xmlns:xlink="http://www.w3.org/1999/xlink">
    <!-- Generator: sketchtool 41.1 (35376) - http://www.bohemiancoding.com/sketch -->
    <title>1B6FB579-592F-4B04-B0A2-DA13B3EFD717</title>
    <desc>Created with sketchtool.</desc>
    <defs></defs>
    <g id="лендос" stroke="none" stroke-width="1" fill="none" fill-rule="evenodd">
        <g id="лендос-768-1920" transform="translate(-341.000000, -3803.000000)" fill="#00BD13">
            <g id="слайд-4" transform="translate(0.000000, 3240.000000)">
                <g id="иконка-сто" transform="translate(341.000000, 563.000000)">
                    <path d="M28.345738,61.831185 L28.345738,34.9987526 C38.3234927,30.4719335 42.7422037,18.7135135 38.2151767,8.73596674 C36.643659,5.27234927 34.1097713,2.33347193 30.9153846,0.269438669 C30.1453222,-0.231185031 29.1151767,-0.0126819127 28.614553,0.757380457 C28.4392931,1.02702703 28.3459459,1.34158004 28.345738,1.66320166 L28.345738,15.9002079 L20.0297297,20.0432432 L11.7137214,15.9002079 L11.7137214,1.66320166 C11.7133056,0.744698545 10.9683992,0.000415800416 10.049896,0.000623700624 C9.72827443,0.000831600831 9.41372141,0.0941787942 9.14407484,0.269438669 C-0.0586278586,6.21559252 -2.6987526,18.4960499 3.24740125,27.6989605 C5.31143451,30.8935551 8.25031185,33.4274428 11.7139293,34.9987526 L11.7139293,61.831185 C4.60873181,65.0305613 0.0484407484,72.1081081 0.0715176715,79.9002079 C0.0305613306,90.922869 8.93284823,99.891684 19.9555094,99.9328482 C30.9781705,99.9740125 39.9469854,91.0715177 39.9881497,80.0488565 C40.0170478,72.2182952 35.4644491,65.0939709 28.345738,61.831185 Z M35.522869,86.0259875 C32.1821206,94.5825364 22.537422,98.8108108 13.9808732,95.4698545 C5.42432432,92.1288981 1.1960499,82.4844075 4.53700624,73.9278586 C6.22723493,69.5987526 9.65176715,66.1742204 13.9808732,64.4839917 C14.6197505,64.2351351 15.0405405,63.6195426 15.0403326,62.9338877 L15.0403326,33.8960499 C15.0397089,33.2110187 14.6191268,32.5962578 13.9808732,32.3476091 C5.47027027,29.0740125 1.22474012,19.52079 4.4985447,11.0101871 C5.35405405,8.78607069 6.68066528,6.77359667 8.38752599,5.11101871 L8.38752599,16.9297297 C8.38752599,17.560499 8.74428274,18.1370062 9.30893971,18.4182952 L19.2881497,23.389605 C19.7553015,23.6224532 20.3045738,23.6224532 20.7717256,23.389605 L30.7509356,18.4182952 C31.3155925,18.1370062 31.6723493,17.560499 31.6723493,16.9297297 L31.6723493,5.11101871 C38.2039501,11.4738046 38.3409563,21.9268191 31.9781705,28.4586279 C30.3153846,30.1654886 28.3029106,31.4923077 26.0790021,32.3476091 C25.4407484,32.5962578 25.0201663,33.2110187 25.0195426,33.8960499 L25.0195426,62.9338877 C25.0193347,63.6195426 25.4401247,64.2351351 26.0790021,64.4839917 C34.635343,67.8247401 38.8636175,77.4694387 35.522869,86.0259875 Z" id="Shape"></path>
                    <path d="M33.1074844,79.0602911 L27.2862786,69.1176715 C26.9900208,68.6045738 26.4432432,68.2879418 25.8509356,68.2860707 L14.2085239,68.2860707 C13.6162162,68.2879418 13.0694387,68.6045738 12.7731809,69.1176715 L6.95197505,79.0602911 C6.64844075,79.5790021 6.64844075,80.2214137 6.95197505,80.7401247 L12.7731809,90.6827443 C13.0715177,91.1925156 13.6178794,91.5060291 14.2085239,91.5060291 L25.8509356,91.5060291 C26.44158,91.5060291 26.9879418,91.1925156 27.2862786,90.6827443 L33.1074844,80.7401247 C33.4112266,80.2214137 33.4112266,79.57921 33.1074844,79.0602911 Z M24.897921,88.1713098 L15.1615385,88.1713098 L10.3149688,79.9002079 L15.1615385,71.62079 L24.897921,71.612474 L29.7444906,79.8918919 L24.897921,88.1713098 Z" id="Shape"></path>
                    <path d="M20.0297297,33.4952183 C19.1112266,33.4952183 18.3665281,34.2399168 18.3665281,35.15842 L18.3665281,61.6731809 C18.3665281,62.591684 19.1112266,63.3363825 20.0297297,63.3363825 C20.9482328,63.3363825 21.6929314,62.591684 21.6929314,61.6731809 L21.6929314,35.15842 C21.6929314,34.2399168 20.9484407,33.4952183 20.0297297,33.4952183 Z" id="Shape"></path>
                    <path d="M76.5785863,54.8856549 L76.5785863,49.8960499 C76.5785863,48.9775468 75.8338877,48.2328482 74.9153846,48.2328482 L69.9257796,48.2328482 L69.9257796,15.3613306 L71.4226611,12.3858628 C71.5794179,12.0711019 71.6324324,11.7147609 71.5740125,11.3679834 L69.9108108,1.38877339 C69.7762994,0.584407484 69.0781705,-0.00374220374 68.262578,-9.78141078e-14 L61.6097713,-9.78141078e-14 C60.7972973,0.000207900208 60.1039501,0.587525988 59.9698545,1.38877339 L58.3066528,11.3679834 C58.2482328,11.7147609 58.3012474,12.0711019 58.4580042,12.3858628 L59.9548857,15.3613306 L59.9548857,48.2328482 L54.9569647,48.2328482 C54.0384615,48.2328482 53.293763,48.9775468 53.293763,49.8960499 L53.293763,54.8856549 C53.3126819,55.3480249 53.5051975,55.7862786 53.8326403,56.1130977 C54.3912682,56.6683992 54.7045738,57.4243243 54.7024948,58.2120582 C54.6993763,59.0237006 54.366736,59.7991684 53.7810811,60.3609148 C53.468815,60.6731809 53.2933472,61.0968815 53.293763,61.5384615 L53.293763,88.1496881 C53.3010395,94.5765073 58.5093555,99.7848233 64.9361746,99.7920998 C71.3629938,99.7848233 76.5713098,94.5765073 76.5785863,88.1496881 L76.5785863,61.5384615 C76.5607069,61.0758836 76.3681913,60.6372141 76.0397089,60.3110187 C75.481289,59.7555094 75.1681913,58.9997921 75.1698545,58.2120582 C75.1725572,57.4 75.5051975,56.6237006 76.0912682,56.0615385 C76.4033264,55.7496881 76.5785863,55.3268191 76.5785863,54.8856549 Z M63.0185031,3.32640333 L66.8538462,3.32640333 L68.1960499,11.3829522 L66.7740125,14.2253638 C66.6588358,14.456341 66.5991684,14.7108108 66.5993763,14.968815 L66.5993763,48.2328482 L63.272973,48.2328482 L63.272973,14.968815 C63.2758836,14.7114345 63.2189189,14.4569647 63.1066528,14.2253638 L61.6762994,11.3829522 L63.0185031,3.32640333 Z M73.252183,54.243659 C71.3902287,56.5571726 71.3902287,59.8553015 73.252183,62.168815 L73.252183,88.1496881 C73.252183,92.7424116 69.5288981,96.4656965 64.9361746,96.4656965 C60.3434511,96.4656965 56.6201663,92.7424116 56.6201663,88.1496881 L56.6201663,62.1787942 C58.4821206,59.8652807 58.4821206,56.5671518 56.6201663,54.2536383 L56.6201663,51.5592516 L73.252183,51.5592516 L73.252183,54.243659 Z" id="Shape"></path>
                    <path d="M61.6097713,64.8648649 C60.6912682,64.8648649 59.9465696,65.6095634 59.9465696,66.5280665 L59.9465696,88.1496881 C59.9465696,89.0681913 60.6912682,89.8128898 61.6097713,89.8128898 C62.5282744,89.8128898 63.272973,89.0681913 63.272973,88.1496881 L63.272973,66.5280665 C63.272973,65.6095634 62.5284823,64.8648649 61.6097713,64.8648649 Z" id="Shape"></path>
                    <path d="M68.262578,64.8648649 C67.3440748,64.8648649 66.5993763,65.6095634 66.5993763,66.5280665 L66.5993763,88.1496881 C66.5993763,89.0681913 67.3440748,89.8128898 68.262578,89.8128898 C69.1810811,89.8128898 69.9257796,89.0681913 69.9257796,88.1496881 L69.9257796,66.5280665 C69.9257796,65.6095634 69.181289,64.8648649 68.262578,64.8648649 Z" id="Shape"></path>
                </g>
            </g>
        </g>
    </g>
</svg>